^C:\USERS\EMILE\DESKTOP\UNITTEST\UNITTEST\STDAFX.CPP
C:\USERS\EMILE\DESKTOP\UNITTEST\UNITTEST\DEBUG\UNITTEST.PCH
C:\USERS\EMILE\DESKTOP\UNITTEST\UNITTEST\DEBUG\VC141.PDB
C:\USERS\EMILE\DESKTOP\UNITTEST\UNITTEST\DEBUG\VC141.IDB
C:\USERS\EMILE\DESKTOP\UNITTEST\UNITTEST\DEBUG\STDAFX.OBJ
^C:\USERS\EMILE\DESKTOP\UNITTEST\UNITTEST\UNITTEST.CPP
C:\USERS\EMILE\DESKTOP\UNITTEST\UNITTEST\DEBUG\VC141.PDB
C:\USERS\EMILE\DESKTOP\UNITTEST\UNITTEST\DEBUG\VC141.IDB
C:\USERS\EMILE\DESKTOP\UNITTEST\UNITTEST\DEBUG\UNITTEST.OBJ
^C:\USERS\EMILE\DESKTOP\CONTAINER\UNITTEST\STDAFX.CPP
C:\USERS\EMILE\DESKTOP\CONTAINER\UNITTEST\DEBUG\UNITTEST.PCH
C:\USERS\EMILE\DESKTOP\CONTAINER\UNITTEST\DEBUG\VC141.PDB
C:\USERS\EMILE\DESKTOP\CONTAINER\UNITTEST\DEBUG\VC141.IDB
C:\USERS\EMILE\DESKTOP\CONTAINER\UNITTEST\DEBUG\STDAFX.OBJ
^C:\USERS\EMILE\DESKTOP\CONTAINER\UNITTEST\UNITTEST.CPP
C:\USERS\EMILE\DESKTOP\CONTAINER\UNITTEST\DEBUG\VC141.PDB
C:\USERS\EMILE\DESKTOP\CONTAINER\UNITTEST\DEBUG\VC141.IDB
C:\USERS\EMILE\DESKTOP\CONTAINER\UNITTEST\DEBUG\UNITTEST.OBJ
