^C:\USERS\EMILE\DESKTOP\UNITTEST\UNITTEST\DEBUG\STDAFX.OBJ|C:\USERS\EMILE\DESKTOP\UNITTEST\UNITTEST\DEBUG\UNITTEST.OBJ
/OUT:"C:\USERS\EMILE\DESKTOP\UNITTEST\DEBUG\UNITTEST.EXE" /INCREMENTAL /NOLOGO C:\USERS\EMILE\DESKTOP\UNITTEST\PACKAGES\GOOGLETEST.1.8.2\BUILD\NATIVE\../..//BUILD/NATIVE/LIB/WIN32\V141\DEBUG\GOOGLETEST_V141.LIB KERNEL32.LIB USER32.LIB GDI32.LIB WINSPOOL.LIB COMDLG32.LIB ADVAPI32.LIB SHELL32.LIB OLE32.LIB OLEAUT32.LIB UUID.LIB ODBC32.LIB ODBCCP32.LIB /MANIFEST /MANIFESTUAC:"level='asInvoker' uiAccess='false'" /manifest:embed /DEBUG:FASTLINK /PDB:"C:\USERS\EMILE\DESKTOP\UNITTEST\DEBUG\UNITTEST.PDB" /SUBSYSTEM:CONSOLE /TLBID:1 /DYNAMICBASE /NXCOMPAT /IMPLIB:"C:\USERS\EMILE\DESKTOP\UNITTEST\DEBUG\UNITTEST.LIB" /MACHINE:X86 DEBUG\STDAFX.OBJDEBUG\UNITTEST.OBJ
^C:\USERS\EMILE\DESKTOP\CONTAINER\UNITTEST\DEBUG\STDAFX.OBJ|C:\USERS\EMILE\DESKTOP\CONTAINER\UNITTEST\DEBUG\UNITTEST.OBJ
/OUT:"C:\USERS\EMILE\DESKTOP\CONTAINER\DEBUG\UNITTEST.EXE" /INCREMENTAL /NOLOGO C:\USERS\EMILE\DESKTOP\CONTAINER\PACKAGES\GOOGLETEST.1.8.2\BUILD\NATIVE\../..//BUILD/NATIVE/LIB/WIN32\V141\DEBUG\GOOGLETEST_V141.LIB KERNEL32.LIB USER32.LIB GDI32.LIB WINSPOOL.LIB COMDLG32.LIB ADVAPI32.LIB SHELL32.LIB OLE32.LIB OLEAUT32.LIB UUID.LIB ODBC32.LIB ODBCCP32.LIB /MANIFEST /MANIFESTUAC:"level='asInvoker' uiAccess='false'" /manifest:embed /DEBUG:FASTLINK /PDB:"C:\USERS\EMILE\DESKTOP\CONTAINER\DEBUG\UNITTEST.PDB" /SUBSYSTEM:CONSOLE /TLBID:1 /DYNAMICBASE /NXCOMPAT /IMPLIB:"C:\USERS\EMILE\DESKTOP\CONTAINER\DEBUG\UNITTEST.LIB" /MACHINE:X86 DEBUG\STDAFX.OBJDEBUG\UNITTEST.OBJ
