^C:\USERS\EMILE\DESKTOP\UNITTEST\UNITTEST\DEBUG\STDAFX.OBJ|C:\USERS\EMILE\DESKTOP\UNITTEST\UNITTEST\DEBUG\UNITTEST.OBJ
C:\USERS\EMILE\DESKTOP\UNITTEST\DEBUG\UNITTEST.EXE
C:\USERS\EMILE\DESKTOP\UNITTEST\DEBUG\UNITTEST.ILK
C:\USERS\EMILE\DESKTOP\UNITTEST\DEBUG\UNITTEST.PDB
^C:\USERS\EMILE\DESKTOP\CONTAINER\UNITTEST\DEBUG\STDAFX.OBJ|C:\USERS\EMILE\DESKTOP\CONTAINER\UNITTEST\DEBUG\UNITTEST.OBJ
C:\USERS\EMILE\DESKTOP\CONTAINER\DEBUG\UNITTEST.EXE
C:\USERS\EMILE\DESKTOP\CONTAINER\DEBUG\UNITTEST.ILK
C:\USERS\EMILE\DESKTOP\CONTAINER\DEBUG\UNITTEST.PDB
